127.0.0.1 - - [25/Sep/2019:07:53:18 +0900] "GET /springmvc/main HTTP/1.1" 200 1161
127.0.0.1 - - [25/Sep/2019:07:53:18 +0900] "GET /sample/springmvc/SpringMVC.js HTTP/1.1" 200 1913
127.0.0.1 - - [25/Sep/2019:07:53:19 +0900] "GET /framework/js/Ajax.js HTTP/1.1" 200 3292
127.0.0.1 - - [25/Sep/2019:07:53:20 +0900] "GET /favicon.ico HTTP/1.1" 404 86
0:0:0:0:0:0:0:1 - - [25/Sep/2019:07:53:36 +0900] "POST /springmvc/postText HTTP/1.1" 200 234
0:0:0:0:0:0:0:1 - - [25/Sep/2019:08:13:07 +0900] "GET /springmvc/main HTTP/1.1" 200 1161
0:0:0:0:0:0:0:1 - - [25/Sep/2019:08:13:08 +0900] "GET /framework/js/Ajax.js HTTP/1.1" 200 3332
0:0:0:0:0:0:0:1 - - [25/Sep/2019:08:13:21 +0900] "POST /springmvc/postText HTTP/1.1" 200 234
0:0:0:0:0:0:0:1 - - [25/Sep/2019:08:36:50 +0900] "GET /springmvc/main HTTP/1.1" 200 1161
0:0:0:0:0:0:0:1 - - [25/Sep/2019:08:36:51 +0900] "GET /framework/js/Ajax.js HTTP/1.1" 200 3490
0:0:0:0:0:0:0:1 - - [25/Sep/2019:08:36:58 +0900] "POST /springmvc/postText HTTP/1.1" 200 234
0:0:0:0:0:0:0:1 - - [25/Sep/2019:08:37:08 +0900] "POST /springmvc/postText HTTP/1.1" 200 234
0:0:0:0:0:0:0:1 - - [25/Sep/2019:08:37:41 +0900] "GET /springmvc/main HTTP/1.1" 200 1161
0:0:0:0:0:0:0:1 - - [25/Sep/2019:08:37:50 +0900] "POST /springmvc/postText HTTP/1.1" 200 234
0:0:0:0:0:0:0:1 - - [25/Sep/2019:08:38:27 +0900] "GET /springmvc/main HTTP/1.1" 200 1161
0:0:0:0:0:0:0:1 - - [25/Sep/2019:08:38:27 +0900] "GET /framework/js/Ajax.js HTTP/1.1" 304 -
0:0:0:0:0:0:0:1 - - [25/Sep/2019:08:38:32 +0900] "POST /springmvc/postText HTTP/1.1" 200 234
0:0:0:0:0:0:0:1 - - [25/Sep/2019:08:41:04 +0900] "GET /springmvc/main HTTP/1.1" 200 1161
0:0:0:0:0:0:0:1 - - [25/Sep/2019:08:41:04 +0900] "GET /sample/springmvc/SpringMVC.js HTTP/1.1" 200 1949
0:0:0:0:0:0:0:1 - - [25/Sep/2019:08:41:04 +0900] "GET /framework/js/Ajax.js HTTP/1.1" 200 3577
0:0:0:0:0:0:0:1 - - [25/Sep/2019:08:41:04 +0900] "GET /framework/js/EventBus.js HTTP/1.1" 200 53
0:0:0:0:0:0:0:1 - - [25/Sep/2019:08:41:10 +0900] "POST /springmvc/postText HTTP/1.1" 200 234
0:0:0:0:0:0:0:1 - - [25/Sep/2019:08:41:15 +0900] "GET / HTTP/1.1" 200 27
0:0:0:0:0:0:0:1 - - [25/Sep/2019:08:44:29 +0900] "GET /springmvc/main HTTP/1.1" 200 1161
0:0:0:0:0:0:0:1 - - [25/Sep/2019:08:44:29 +0900] "GET /sample/springmvc/SpringMVC.js HTTP/1.1" 200 1953
0:0:0:0:0:0:0:1 - - [25/Sep/2019:08:44:30 +0900] "GET /framework/js/Ajax.js HTTP/1.1" 200 3577
0:0:0:0:0:0:0:1 - - [25/Sep/2019:08:44:30 +0900] "GET /framework/js/EventBus.js HTTP/1.1" 200 53
0:0:0:0:0:0:0:1 - - [25/Sep/2019:08:44:38 +0900] "POST /springmvc/postText HTTP/1.1" 200 234
0:0:0:0:0:0:0:1 - - [25/Sep/2019:09:00:57 +0900] "GET /springmvc/main HTTP/1.1" 200 1161
0:0:0:0:0:0:0:1 - - [25/Sep/2019:09:00:57 +0900] "GET /sample/springmvc/SpringMVC.js HTTP/1.1" 200 1966
0:0:0:0:0:0:0:1 - - [25/Sep/2019:09:00:58 +0900] "GET /framework/js/Ajax.js HTTP/1.1" 200 3904
0:0:0:0:0:0:0:1 - - [25/Sep/2019:09:00:58 +0900] "GET /framework/js/EventBus.js HTTP/1.1" 200 53
0:0:0:0:0:0:0:1 - - [25/Sep/2019:10:31:47 +0900] "GET /attachments/imagedown.pdf HTTP/1.1" 200 704121
0:0:0:0:0:0:0:1 - - [25/Sep/2019:10:39:14 +0900] "GET /springmvc/main HTTP/1.1" 200 1161
0:0:0:0:0:0:0:1 - - [25/Sep/2019:10:39:14 +0900] "GET /sample/springmvc/SpringMVC.js HTTP/1.1" 200 2488
0:0:0:0:0:0:0:1 - - [25/Sep/2019:10:39:26 +0900] "GET /springmvc/main HTTP/1.1" 200 1161
0:0:0:0:0:0:0:1 - - [25/Sep/2019:10:39:26 +0900] "GET /sample/springmvc/SpringMVC.js HTTP/1.1" 200 2489
0:0:0:0:0:0:0:1 - - [25/Sep/2019:10:39:27 +0900] "GET /framework/js/Ajax.js HTTP/1.1" 200 3899
0:0:0:0:0:0:0:1 - - [25/Sep/2019:10:39:27 +0900] "GET /framework/js/EventBus.js HTTP/1.1" 200 53
0:0:0:0:0:0:0:1 - - [25/Sep/2019:10:39:30 +0900] "GET /attachments/imagedown.pdf HTTP/1.1" 200 704121
0:0:0:0:0:0:0:1 - - [25/Sep/2019:10:39:59 +0900] "GET /springmvc/main HTTP/1.1" 200 1161
0:0:0:0:0:0:0:1 - - [25/Sep/2019:10:39:59 +0900] "GET /sample/springmvc/SpringMVC.js HTTP/1.1" 200 2515
0:0:0:0:0:0:0:1 - - [25/Sep/2019:10:39:59 +0900] "GET /framework/js/EventBus.js HTTP/1.1" 200 53
0:0:0:0:0:0:0:1 - - [25/Sep/2019:10:39:59 +0900] "GET /framework/js/Ajax.js HTTP/1.1" 200 3899
0:0:0:0:0:0:0:1 - - [25/Sep/2019:10:40:03 +0900] "GET /attachments/imagedown.pdf HTTP/1.1" 200 704121
0:0:0:0:0:0:0:1 - - [25/Sep/2019:11:37:34 +0900] "GET /springmvc/main HTTP/1.1" 200 1161
0:0:0:0:0:0:0:1 - - [25/Sep/2019:11:37:34 +0900] "GET /sample/springmvc/SpringMVC.js HTTP/1.1" 200 6719
0:0:0:0:0:0:0:1 - - [25/Sep/2019:11:37:40 +0900] "GET /springmvc/main HTTP/1.1" 200 1161
0:0:0:0:0:0:0:1 - - [25/Sep/2019:11:38:02 +0900] "GET /springmvc/main HTTP/1.1" 200 1161
0:0:0:0:0:0:0:1 - - [25/Sep/2019:11:38:02 +0900] "GET /sample/springmvc/SpringMVC.js HTTP/1.1" 200 6720
0:0:0:0:0:0:0:1 - - [25/Sep/2019:11:38:13 +0900] "GET /springmvc/main HTTP/1.1" 200 1161
0:0:0:0:0:0:0:1 - - [25/Sep/2019:11:38:13 +0900] "GET /sample/springmvc/SpringMVC.js HTTP/1.1" 200 6721
0:0:0:0:0:0:0:1 - - [25/Sep/2019:11:38:13 +0900] "GET /framework/js/EventBus.js HTTP/1.1" 200 53
0:0:0:0:0:0:0:1 - - [25/Sep/2019:11:38:13 +0900] "GET /framework/js/Ajax.js HTTP/1.1" 200 3899
0:0:0:0:0:0:0:1 - - [25/Sep/2019:11:38:24 +0900] "POST /springmvc/postXml HTTP/1.1" 200 79
0:0:0:0:0:0:0:1 - - [25/Sep/2019:11:38:30 +0900] "POST /springmvc/postUrlencoded HTTP/1.1" 200 79
0:0:0:0:0:0:0:1 - - [25/Sep/2019:11:38:35 +0900] "POST /springmvc/postJSON HTTP/1.1" 200 234
0:0:0:0:0:0:0:1 - - [25/Sep/2019:11:38:40 +0900] "POST /springmvc/postJSON HTTP/1.1" 200 234
0:0:0:0:0:0:0:1 - - [25/Sep/2019:11:41:00 +0900] "GET /springmvc/main HTTP/1.1" 200 1161
0:0:0:0:0:0:0:1 - - [25/Sep/2019:11:41:00 +0900] "GET /sample/springmvc/SpringMVC.js HTTP/1.1" 200 6721
0:0:0:0:0:0:0:1 - - [25/Sep/2019:11:41:00 +0900] "GET /framework/js/EventBus.js HTTP/1.1" 200 53
0:0:0:0:0:0:0:1 - - [25/Sep/2019:11:41:00 +0900] "GET /framework/js/Ajax.js HTTP/1.1" 200 3899
0:0:0:0:0:0:0:1 - - [25/Sep/2019:11:41:02 +0900] "POST /springmvc/postXml HTTP/1.1" 200 79
0:0:0:0:0:0:0:1 - - [25/Sep/2019:11:41:05 +0900] "POST /springmvc/postUrlencoded HTTP/1.1" 200 79
0:0:0:0:0:0:0:1 - - [25/Sep/2019:11:41:08 +0900] "POST /springmvc/postJSON HTTP/1.1" 200 79
0:0:0:0:0:0:0:1 - - [25/Sep/2019:11:41:11 +0900] "POST /springmvc/postText HTTP/1.1" 200 79
0:0:0:0:0:0:0:1 - - [25/Sep/2019:11:41:16 +0900] "POST /springmvc/requestParamTest?name=Andy HTTP/1.1" 404 86
0:0:0:0:0:0:0:1 - - [25/Sep/2019:11:42:24 +0900] "GET /springmvc/main HTTP/1.1" 200 1161
0:0:0:0:0:0:0:1 - - [25/Sep/2019:11:42:24 +0900] "GET /sample/springmvc/SpringMVC.js HTTP/1.1" 200 6705
0:0:0:0:0:0:0:1 - - [25/Sep/2019:11:42:24 +0900] "GET /framework/js/Ajax.js HTTP/1.1" 200 3899
0:0:0:0:0:0:0:1 - - [25/Sep/2019:11:42:24 +0900] "GET /framework/js/EventBus.js HTTP/1.1" 200 53
0:0:0:0:0:0:0:1 - - [25/Sep/2019:11:42:27 +0900] "POST /springmvc/requestParamTest?name=Andy HTTP/1.1" 404 86
0:0:0:0:0:0:0:1 - - [25/Sep/2019:11:42:45 +0900] "GET /springmvc/main HTTP/1.1" 200 1161
0:0:0:0:0:0:0:1 - - [25/Sep/2019:11:42:45 +0900] "GET /sample/springmvc/SpringMVC.js HTTP/1.1" 200 6701
0:0:0:0:0:0:0:1 - - [25/Sep/2019:11:42:45 +0900] "GET /framework/js/Ajax.js HTTP/1.1" 200 3899
0:0:0:0:0:0:0:1 - - [25/Sep/2019:11:42:45 +0900] "GET /framework/js/EventBus.js HTTP/1.1" 200 53
0:0:0:0:0:0:0:1 - - [25/Sep/2019:11:42:47 +0900] "POST /springmvc/postReqParam?name=Andy HTTP/1.1" 404 86
0:0:0:0:0:0:0:1 - - [25/Sep/2019:11:42:58 +0900] "GET /springmvc/main HTTP/1.1" 200 1161
0:0:0:0:0:0:0:1 - - [25/Sep/2019:11:42:58 +0900] "GET /sample/springmvc/SpringMVC.js HTTP/1.1" 200 6697
0:0:0:0:0:0:0:1 - - [25/Sep/2019:11:42:58 +0900] "GET /framework/js/EventBus.js HTTP/1.1" 200 53
0:0:0:0:0:0:0:1 - - [25/Sep/2019:11:42:58 +0900] "GET /framework/js/Ajax.js HTTP/1.1" 200 3899
0:0:0:0:0:0:0:1 - - [25/Sep/2019:11:43:01 +0900] "POST /springmvc/reqParam?name=Andy HTTP/1.1" 200 79
0:0:0:0:0:0:0:1 - - [25/Sep/2019:11:43:26 +0900] "GET /springmvc/main HTTP/1.1" 200 1161
0:0:0:0:0:0:0:1 - - [25/Sep/2019:11:43:26 +0900] "GET /sample/springmvc/SpringMVC.js HTTP/1.1" 200 6697
0:0:0:0:0:0:0:1 - - [25/Sep/2019:11:43:26 +0900] "GET /framework/js/EventBus.js HTTP/1.1" 200 53
0:0:0:0:0:0:0:1 - - [25/Sep/2019:11:43:26 +0900] "GET /framework/js/Ajax.js HTTP/1.1" 200 3899
0:0:0:0:0:0:0:1 - - [25/Sep/2019:11:43:29 +0900] "POST /springmvc/jsonTest HTTP/1.1" 200 51
0:0:0:0:0:0:0:1 - - [25/Sep/2019:11:44:29 +0900] "POST /springmvc/jsonTest HTTP/1.1" 200 51
0:0:0:0:0:0:0:1 - - [25/Sep/2019:11:44:55 +0900] "GET /springmvc/main HTTP/1.1" 200 1161
0:0:0:0:0:0:0:1 - - [25/Sep/2019:11:44:55 +0900] "GET /sample/springmvc/SpringMVC.js HTTP/1.1" 200 6715
0:0:0:0:0:0:0:1 - - [25/Sep/2019:11:44:55 +0900] "GET /framework/js/EventBus.js HTTP/1.1" 200 53
0:0:0:0:0:0:0:1 - - [25/Sep/2019:11:44:55 +0900] "GET /framework/js/Ajax.js HTTP/1.1" 200 3899
0:0:0:0:0:0:0:1 - - [25/Sep/2019:11:44:58 +0900] "POST /springmvc/jsonTest HTTP/1.1" 200 51
0:0:0:0:0:0:0:1 - - [25/Sep/2019:11:48:19 +0900] "GET /springmvc/main HTTP/1.1" 200 1161
0:0:0:0:0:0:0:1 - - [25/Sep/2019:11:48:19 +0900] "GET /sample/springmvc/SpringMVC.js HTTP/1.1" 200 6732
0:0:0:0:0:0:0:1 - - [25/Sep/2019:11:48:19 +0900] "GET /framework/js/Ajax.js HTTP/1.1" 200 3899
0:0:0:0:0:0:0:1 - - [25/Sep/2019:11:48:19 +0900] "GET /framework/js/EventBus.js HTTP/1.1" 200 53
0:0:0:0:0:0:0:1 - - [25/Sep/2019:11:48:22 +0900] "POST /springmvc/xmlTest HTTP/1.1" 200 162
0:0:0:0:0:0:0:1 - - [25/Sep/2019:11:48:48 +0900] "GET /springmvc/main HTTP/1.1" 200 1161
0:0:0:0:0:0:0:1 - - [25/Sep/2019:11:48:48 +0900] "GET /sample/springmvc/SpringMVC.js HTTP/1.1" 200 6759
0:0:0:0:0:0:0:1 - - [25/Sep/2019:11:48:49 +0900] "GET /framework/js/Ajax.js HTTP/1.1" 200 3899
0:0:0:0:0:0:0:1 - - [25/Sep/2019:11:48:49 +0900] "GET /framework/js/EventBus.js HTTP/1.1" 200 53
0:0:0:0:0:0:0:1 - - [25/Sep/2019:11:48:51 +0900] "POST /springmvc/htmlTest HTTP/1.1" 200 46
0:0:0:0:0:0:0:1 - - [25/Sep/2019:11:49:15 +0900] "GET /springmvc/main HTTP/1.1" 200 1161
0:0:0:0:0:0:0:1 - - [25/Sep/2019:11:49:15 +0900] "GET /sample/springmvc/SpringMVC.js HTTP/1.1" 200 6789
0:0:0:0:0:0:0:1 - - [25/Sep/2019:11:49:15 +0900] "GET /framework/js/Ajax.js HTTP/1.1" 200 3899
0:0:0:0:0:0:0:1 - - [25/Sep/2019:11:49:15 +0900] "GET /framework/js/EventBus.js HTTP/1.1" 200 53
0:0:0:0:0:0:0:1 - - [25/Sep/2019:11:49:17 +0900] "POST /springmvc/textTest HTTP/1.1" 200 21
